%YAML 1.1
%TAG !u! tag:unity3d.com,2011:
--- !u!1045 &1
EditorBuildSettings:
  m_ObjectHideFlags: 0
  serializedVersion: 2
  m_Scenes:
  - enabled: 1
    path: Assets/_Scenes/CameraMovements.unity
    guid: 733a9ec0b9ddaa940a09f4f90cc949a3
  - enabled: 1
    path: Assets/_Scenes/TwoAndAHalfDCam.unity
    guid: 2100bb1fd36f70f488c8e13b2eb65d00
  - enabled: 1
    path: Assets/_Scenes/FirstPersonCam.unity
    guid: 16e0252887bf3b14585e6254b4f11f0c
  - enabled: 1
    path: Assets/_Scenes/FreeLookCam.unity
    guid: fbc31ade130a0ed418a8817b4746ba26
  - enabled: 1
    path: Assets/_Scenes/FollowCam.unity
    guid: acea936bc2d0e7f4cb4fd1de28ac0734
  - enabled: 1
    path: Assets/_Scenes/OrbitCam.unity
    guid: c829bf386d4c7be49b4c3e110fb536aa
  m_configObjects: {}
